{
    "name": "chatWeMaintain",
    "app_id": "",
    "type": "ionic-angular",
    "integrations": {
        "cordova": {}
    },
    "proxies": [
        {
            "path": "/",
            "proxyUrl": "https://api-p.sendbird.com/routing/3A263EF9-ADA3-4006-91CD-07A7536D80B9"
        }
    ]
}
